<?xml version="1.0" encoding="UTF-8"?>
<kml xmlns="http://www.opengis.net/kml/2.2" xmlns:gx="http://www.google.com/kml/ext/2.2" xmlns:kml="http://www.opengis.net/kml/2.2" xmlns:atom="http://www.w3.org/2005/Atom">
<Document>
	<name>Untitled Project</name>
	  <description>Area Features</description>
	<gx:CascadingStyle kml:id="__managed_style_29ED50B7D7122C88239F">
		<Style>
			<IconStyle>
				<scale>1.2</scale>
				<Icon>
					<href>https://earth.google.com/earth/rpc/cc/icon?color=1976d2&amp;id=2000&amp;scale=4</href>
				</Icon>
				<hotSpot x="64" y="128" xunits="pixels" yunits="insetPixels"/>
			</IconStyle>
			<LabelStyle>
			</LabelStyle>
			<LineStyle>
				<color>ff2dc0fb</color>
				<width>6</width>
			</LineStyle>
			<PolyStyle>
				<color>40ffffff</color>
			</PolyStyle>
			<BalloonStyle>
				<displayMode>hide</displayMode>
			</BalloonStyle>
		</Style>
	</gx:CascadingStyle>
	<gx:CascadingStyle kml:id="__managed_style_1A798BB604122C88239F">
		<Style>
			<IconStyle>
				<Icon>
					<href>https://earth.google.com/earth/rpc/cc/icon?color=1976d2&amp;id=2000&amp;scale=4</href>
				</Icon>
				<hotSpot x="64" y="128" xunits="pixels" yunits="insetPixels"/>
			</IconStyle>
			<LabelStyle>
			</LabelStyle>
			<LineStyle>
				<color>ff2dc0fb</color>
				<width>4</width>
			</LineStyle>
			<PolyStyle>
				<color>40ffffff</color>
			</PolyStyle>
			<BalloonStyle>
				<displayMode>hide</displayMode>
			</BalloonStyle>
		</Style>
	</gx:CascadingStyle>
	<StyleMap id="__managed_style_03CFE0A3D7122C88239F">
		<Pair>
			<key>normal</key>
			<styleUrl>#__managed_style_1A798BB604122C88239F</styleUrl>
		</Pair>
		<Pair>
			<key>highlight</key>
			<styleUrl>#__managed_style_29ED50B7D7122C88239F</styleUrl>
		</Pair>
	</StyleMap>
	<Placemark id="0520F1C09B122C88239E">
		<name>Aerodyne Campus</name>
		<LookAt>
			<longitude>101.6520739525638</longitude>
			<latitude>2.90088821182017</latitude>
			<altitude>31.76434275197502</altitude>
			<heading>0</heading>
			<tilt>0</tilt>
			<gx:fovy>35</gx:fovy>
			<range>372.0752406598331</range>
			<altitudeMode>absolute</altitudeMode>
		</LookAt>
		<styleUrl>#__managed_style_03CFE0A3D7122C88239F</styleUrl>
		<Polygon>
			<outerBoundaryIs>
				<LinearRing>
					<coordinates>
						101.6517065226296,2.901642879743366,28.33926520196989 101.6515603963928,2.90134740879769,27.03217960300848 101.6514293505775,2.901095845897248,26.11712650339186 101.651570313127,2.900739949194147,26.2384612784797 101.6521498924476,2.900525250781227,31.32422524589813 101.6523928351395,2.900206850560725,31.40053066328235 101.653127807251,2.90064457593718,31.54612019204533 101.6529484874148,2.90093649605928,34.93052214869728 101.653106274102,2.901247886704847,36.89446167742469 101.6522667421017,2.901631639161838,36.06993009543885 101.652302664804,2.901713294888823,36.8624396213016 101.6520502106641,2.901811881805807,33.27686942253618 101.6518103328967,2.901777059557881,29.78438875122455 101.6517065226296,2.901642879743366,28.33926520196989 
					</coordinates>
				</LinearRing>
			</outerBoundaryIs>
		</Polygon>
	</Placemark>
</Document>
</kml>
