<?xml version="1.0" encoding="UTF-8"?>
<kml xmlns="http://www.opengis.net/kml/2.2" xmlns:gx="http://www.google.com/kml/ext/2.2" xmlns:kml="http://www.opengis.net/kml/2.2" xmlns:atom="http://www.w3.org/2005/Atom">
<Document>
	<name>Aerodyne campus now</name>
	<description>aerodyne test</description>
	<gx:CascadingStyle kml:id="__managed_style_22E09F6C51124125AB2E">
		<styleUrl>https://earth.google.com/balloon_components/base/1.0.18.6/card_template.kml#main</styleUrl>
		<Style>
			<IconStyle>
				<scale>1.2</scale>
				<Icon>
					<href>https://earth.google.com/earth/rpc/cc/icon?color=1976d2&amp;id=2000&amp;scale=4</href>
				</Icon>
				<hotSpot x="64" y="128" xunits="pixels" yunits="insetPixels"/>
			</IconStyle>
			<LabelStyle>
			</LabelStyle>
			<LineStyle>
				<color>ff2dc0fb</color>
				<width>6</width>
			</LineStyle>
			<PolyStyle>
				<color>40ffffff</color>
			</PolyStyle>
			<BalloonStyle>
			</BalloonStyle>
		</Style>
	</gx:CascadingStyle>
	<gx:CascadingStyle kml:id="__managed_style_197ECBBCFA124125AB2E">
		<styleUrl>https://earth.google.com/balloon_components/base/1.0.18.6/card_template.kml#main</styleUrl>
		<Style>
			<IconStyle>
				<Icon>
					<href>https://earth.google.com/earth/rpc/cc/icon?color=1976d2&amp;id=2000&amp;scale=4</href>
				</Icon>
				<hotSpot x="64" y="128" xunits="pixels" yunits="insetPixels"/>
			</IconStyle>
			<LabelStyle>
			</LabelStyle>
			<LineStyle>
				<color>ff2dc0fb</color>
				<width>4</width>
			</LineStyle>
			<PolyStyle>
				<color>40ffffff</color>
			</PolyStyle>
			<BalloonStyle>
			</BalloonStyle>
		</Style>
	</gx:CascadingStyle>
	<StyleMap id="__managed_style_0272BECF82124125AB2E">
		<Pair>
			<key>normal</key>
			<styleUrl>#__managed_style_197ECBBCFA124125AB2E</styleUrl>
		</Pair>
		<Pair>
			<key>highlight</key>
			<styleUrl>#__managed_style_22E09F6C51124125AB2E</styleUrl>
		</Pair>
	</StyleMap>
	<Placemark id="05DA17880F1241244C42">
		<name>A1</name>
		<description><![CDATA[<div>A1 test</div>]]></description>
		<LookAt>
			<longitude>102.3299024140448</longitude>
			<latitude>4.947751220706872</latitude>
			<altitude>108.3959073131358</altitude>
			<heading>0</heading>
			<tilt>0</tilt>
			<gx:fovy>35</gx:fovy>
			<range>21172.63392118737</range>
			<altitudeMode>absolute</altitudeMode>
		</LookAt>
		<styleUrl>#__managed_style_0272BECF82124125AB2E</styleUrl>
		<Polygon>
			<outerBoundaryIs>
				<LinearRing>
					<coordinates>
						102.3056931773077,4.933318589215016,85.97630745267486 102.34298660803,4.950911184042709,106.2975127197724 102.3326769846711,4.983684186309594,115.0675968969741 102.2951821620983,4.975026563202882,92.15183272690643 102.3056931773077,4.933318589215016,85.97630745267486 
					</coordinates>
				</LinearRing>
			</outerBoundaryIs>
		</Polygon>
	</Placemark>
	<Placemark id="0FD5578703124124C039">
		<name>A2</name>
		<description><![CDATA[<div>A2 test</div>]]></description>
		<LookAt>
			<longitude>102.3190844062291</longitude>
			<latitude>4.958501365400434</latitude>
			<altitude>111.093435045334</altitude>
			<heading>0</heading>
			<tilt>0</tilt>
			<gx:fovy>35</gx:fovy>
			<range>9776.318085099339</range>
			<altitudeMode>absolute</altitudeMode>
		</LookAt>
		<styleUrl>#__managed_style_0272BECF82124125AB2E</styleUrl>
		<Polygon>
			<outerBoundaryIs>
				<LinearRing>
					<coordinates>
						102.340624474884,4.957953112179182,97.69469550114088 102.3575396126251,4.965540674878735,86.16347827937908 102.3495248811195,4.978535624709664,125.2082134034136 102.335845060118,4.974103768992719,105.6367180874272 102.340624474884,4.957953112179182,97.69469550114088 
					</coordinates>
				</LinearRing>
			</outerBoundaryIs>
		</Polygon>
	</Placemark>
	<Placemark id="021F240F0C1241252589">
		<name>A3</name>
		<description><![CDATA[<div>A3 test</div>]]></description>
		<LookAt>
			<longitude>102.3190844062291</longitude>
			<latitude>4.958501365400434</latitude>
			<altitude>111.093435045334</altitude>
			<heading>0</heading>
			<tilt>0</tilt>
			<gx:fovy>35</gx:fovy>
			<range>9776.318085099339</range>
			<altitudeMode>absolute</altitudeMode>
		</LookAt>
		<styleUrl>#__managed_style_0272BECF82124125AB2E</styleUrl>
		<Polygon>
			<outerBoundaryIs>
				<LinearRing>
					<coordinates>
						102.3448684793321,4.945154027709087,87.36559556667557 102.3607579002866,4.950743949317087,106.3228071890931 102.3599665386909,4.966828881693964,76.62724599184787 102.3408037255271,4.957679311863425,99.53112617745685 102.3448684793321,4.945154027709087,87.36559556667557 
					</coordinates>
				</LinearRing>
			</outerBoundaryIs>
		</Polygon>
	</Placemark>
	<Placemark id="0AE5C272771241257C3A">
		<name>A4</name>
		<description><![CDATA[<div>A4 test</div>]]></description>
		<LookAt>
			<longitude>102.3190844062291</longitude>
			<latitude>4.958501365400434</latitude>
			<altitude>111.093435045334</altitude>
			<heading>0</heading>
			<tilt>0</tilt>
			<gx:fovy>35</gx:fovy>
			<range>9776.318085099339</range>
			<altitudeMode>absolute</altitudeMode>
		</LookAt>
		<styleUrl>#__managed_style_0272BECF82124125AB2E</styleUrl>
		<Polygon>
			<outerBoundaryIs>
				<LinearRing>
					<coordinates>
						102.2852596541922,4.952051469876532,150.4097712824341 102.2997758371317,4.956586565268247,113.6118818185745 102.297150780208,4.966786274056245,126.7106063632471 102.2845404536557,4.962041798991755,153.4419103512353 102.2852596541922,4.952051469876532,150.4097712824341 
					</coordinates>
				</LinearRing>
			</outerBoundaryIs>
		</Polygon>
	</Placemark>
</Document>
</kml>
