<?xml version="1.0" encoding="UTF-8"?>
<kml xmlns="http://www.opengis.net/kml/2.2" xmlns:gx="http://www.google.com/kml/ext/2.2" xmlns:kml="http://www.opengis.net/kml/2.2" xmlns:atom="http://www.w3.org/2005/Atom">
<Document>
	<name>Carwoola single</name>
	<description>Carwoola single</description>
	<gx:CascadingStyle kml:id="__managed_style_293504CBF912938808B9">
		<styleUrl>https://earth.google.com/balloon_components/base/1.0.18.6/card_template.kml#main</styleUrl>
		<Style>
			<IconStyle>
				<scale>1.2</scale>
				<Icon>
					<href>https://earth.google.com/earth/rpc/cc/icon?color=1976d2&amp;id=2000&amp;scale=4</href>
				</Icon>
				<hotSpot x="64" y="128" xunits="pixels" yunits="insetPixels"/>
			</IconStyle>
			<LabelStyle>
			</LabelStyle>
			<LineStyle>
				<color>ff2dc0fb</color>
				<width>6</width>
			</LineStyle>
			<PolyStyle>
				<color>40ffffff</color>
			</PolyStyle>
			<BalloonStyle>
			</BalloonStyle>
		</Style>
	</gx:CascadingStyle>
	<gx:CascadingStyle kml:id="__managed_style_12A251B5BB12938808B9">
		<styleUrl>https://earth.google.com/balloon_components/base/1.0.18.6/card_template.kml#main</styleUrl>
		<Style>
			<IconStyle>
				<Icon>
					<href>https://earth.google.com/earth/rpc/cc/icon?color=1976d2&amp;id=2000&amp;scale=4</href>
				</Icon>
				<hotSpot x="64" y="128" xunits="pixels" yunits="insetPixels"/>
			</IconStyle>
			<LabelStyle>
			</LabelStyle>
			<LineStyle>
				<color>ff2dc0fb</color>
				<width>4</width>
			</LineStyle>
			<PolyStyle>
				<color>40ffffff</color>
			</PolyStyle>
			<BalloonStyle>
			</BalloonStyle>
		</Style>
	</gx:CascadingStyle>
	<StyleMap id="__managed_style_01E46C2FE712938808B9">
		<Pair>
			<key>normal</key>
			<styleUrl>#__managed_style_12A251B5BB12938808B9</styleUrl>
		</Pair>
		<Pair>
			<key>highlight</key>
			<styleUrl>#__managed_style_293504CBF912938808B9</styleUrl>
		</Pair>
	</StyleMap>
	<Placemark id="0CAB561DDD129387D588">
		<name>cSingle</name>
		<description><![CDATA[<div>cSingle<br></div>]]></description>
		<LookAt>
			<longitude>149.4194859787031</longitude>
			<latitude>-35.40883421461876</latitude>
			<altitude>746.9083126059867</altitude>
			<heading>0</heading>
			<tilt>0</tilt>
			<gx:fovy>35</gx:fovy>
			<range>8652.321702092886</range>
			<altitudeMode>absolute</altitudeMode>
		</LookAt>
		<styleUrl>#__managed_style_01E46C2FE712938808B9</styleUrl>
		<Polygon>
			<outerBoundaryIs>
				<LinearRing>
					<coordinates>
						149.4065186750807,-35.41207509968473,739.0932531658335 149.407605516123,-35.40585754435578,736.3278766485706 149.4002870203166,-35.40460931839936,729.2047001016244 149.3999583300014,-35.4104775343123,729.1919100376958 149.4065186750807,-35.41207509968473,739.0932531658335 
					</coordinates>
				</LinearRing>
			</outerBoundaryIs>
		</Polygon>
	</Placemark>
</Document>
</kml>
