<?xml version="1.0" encoding="UTF-8"?>
<kml xmlns="http://www.opengis.net/kml/2.2" xmlns:gx="http://www.google.com/kml/ext/2.2" xmlns:globalmapper="http://www.bluemarblegeo.com/globalmapper">
<Document>
  <!-- Begin Style Definitions -->
  <Style id="line1">
    <LineStyle>
      <color>FF000000</color>
      <width>1</width>
    </LineStyle>
  </Style>
  <Style id="point1">
    <IconStyle><Icon><href>kml_symbol_dam_0.png</href></Icon></IconStyle>
  </Style>
  <Style id="point2">
    <IconStyle><Icon><href>kml_symbol_dot_0.png</href></Icon></IconStyle>
  </Style>
  <Folder>
    <name>Point Features</name>
    <description>Point Features</description>
    <Placemark>
      <description>Dam</description>
      <name>Scarifier Dam 1</name>
      <styleUrl>#point1</styleUrl>
      <Point>
        <coordinates>149.4087403596,-35.4197751414,0</coordinates>
      </Point>
    </Placemark>
    <Placemark>
      <description>Dam</description>
      <name>Long Dam 2</name>
      <styleUrl>#point1</styleUrl>
      <Point>
        <coordinates>149.4044145880,-35.4246753956,0</coordinates>
      </Point>
    </Placemark>
    <Placemark>
      <description>Dam</description>
      <name>Bottom Luck Dam</name>
      <styleUrl>#point1</styleUrl>
      <Point>
        <coordinates>149.3851862984,-35.4324396541,0</coordinates>
      </Point>
    </Placemark>
    <Placemark>
      <description>Dam</description>
      <name>Back Corner West Dam</name>
      <styleUrl>#point1</styleUrl>
      <Point>
        <coordinates>149.4187042698,-35.4081417037,0</coordinates>
      </Point>
    </Placemark>
  </Folder>
</Document>
</kml>
